%YAML 1.1
%TAG !u! tag:unity3d.com,2011:
--- !u!1045 &1
EditorBuildSettings:
  m_ObjectHideFlags: 0
  serializedVersion: 2
  m_Scenes:
  - enabled: 1
    path: Assets/Scenes/Menu.unity
    guid: 0274126093f0472419710386479e04c3
  - enabled: 1
    path: Assets/Scenes/Instrucciones.unity
    guid: 4b72d3fc4105a5c47b3dabd2e3c8c745
  - enabled: 1
    path: Assets/Scenes/Nivel 1.unity
    guid: 2431118327dbcd143aa54468c84a34e9
  - enabled: 1
    path: Assets/Scenes/GameOver.unity
    guid: 5e8a373a940b076429de32830ef9d063
  m_configObjects: {}
